module gossa

go 1.16

require (
	github.com/dgrijalva/jwt-go v3.2.0+incompatible
	github.com/go-sql-driver/mysql v1.6.0
	github.com/gorilla/mux v1.8.0
	github.com/joho/godotenv v1.3.0
	golang.org/x/crypto v0.0.0-20210817164053-32db794688a5
)
